7 Analysing Spatial Patterns II: Spatial Autocorrelation | GEOG0030: Geocomputation
…
# join the local Gi* statistic to `obesity_ward_sdf` spatial dataframe
obesity_ward_sdf <- obesity_ward_sdf %>%
    mutate(obesity_LGO_G = as.numeric(obesity_LGO))

# inspect
obesity_ward_sdf

## Simple feature collection with 613 features and 25 fields
## Geometry type: POLYGON
## Dimension:     XY
## Bounding box:  xmin: 503568.2 ymin: 155850.8 xmax: 561957.5 ymax: 200933.9
## Projected CRS: OSGB36 / British National Grid
## # A tibble: 613 × 26
##    NAME                       GSS_CODE  HECTARES NONLD…¹ LB_GS…² BOROUGH POLY_ID
##  * <chr>                      <chr>        <dbl>   <dbl> <chr>   <chr>     <dbl>
##  1 Chessington South          E05000405     755.       0 E09000… Kingst…   50840
##  2 Tolworth and Hook Rise     E05000414     259.       0 E09000… Kingst…  117160
##  3 Berrylands                 E05000401     145.       0 E09000… Kingst…   50449
##  4 Alexandra                  E05000400     269.       0 E09000… Kingst…   50456
##  5 Beverley                   E05000402     188.       0 E09000… Kingst…  117161
##  6 Coombe Hill                E05000406     442.       0 E09000… Kingst…  117159
##  7 Chessington North and Hook E05000404     193.       0 E09000… Kingst…   50530
##  8 Surbiton Hill              E05000413     166.       0 E09000… Kingst…   50457
##  9 Old Malden                 E05000410     180.       0 E09000… Kingst…   50455
## 10 St. Mark's                 E05000412     138.       0 E09000… Kingst…   50450
## # … with 603 more rows, 19 more variables: geometry <POLYGON [m]>,
## #   ward_name <chr>, y6_obesity_2014 <dbl>, IDACI_2010 <dbl>,
## #   med_house_price_2014 <dbl>, mean_hh_income_2013 <dbl>,
## #   per_no_adult_employ_2011 <dbl>, per_no_qual_2011 <dbl>,
## #   per_deficiency_greenspace_2012 <dbl>, PTAL_2014 <dbl>, LMI_Ii <dbl>,
## #   LMI_eIi <dbl>, LMI_varIi <dbl>, LMI_zIi <dbl>, LMI_sigP <dbl>,
## #   obs_diff <dbl>, LMI_diff <dbl>, cluster_type <chr>, obesity_LGO_G <dbl>, …
…
