5 Programming for Spatial Analysis | GEOG0030: Geocomputation
…
pivot_longer() “lengthens” data, increasing the number of rows and decreasing the number of columns.

Our data is already pretty long, so that seems to suggest that we should use pivot_wider(). We just need to first read through the documentation to figure out what parameters we need to use and how. Type ?pivot_wider into the console to access the documentation.

If we read through the documentation, we can figure our that our two parameters of interest are the names_from and values_from fields. We use the names_from parameter to set our month column as the column from which to derive output fields from, and the values_from field as our n field (count field) to set our values. As we do not have a field that uniquely identifies each of our rows, we can not use the id_cols parameter. We will therefore need to state the parameters in our code to make sure the function reads in our fields for the right parameter:

# pivot wider
theft_by_ward_month_df <- pivot_wider(theft_count_month_ward, names_from = month,
    values_from = n)

# inspect
theft_by_ward_month_df

## # A tibble: 645 × 13
## # Groups:   WD18CD [645]
##    WD18CD    `2020-01` `2020-02` 2020-…¹ 2020-…² 2020-…³ 2020-…⁴ 2020-…⁵ 2020-…⁶
##    <chr>         <int>     <int>   <int>   <int>   <int>   <int>   <int>   <int>
##  1 E05000026        30        28      25       6      12      13      11      10
##  2 E05000027         2         1       1       1       1      NA       3       1
##  3 E05000028         1         1       2       2       2       1      NA       1
##  4 E05000029        NA        NA      NA      NA       2      NA       2      NA
##  5 E05000030         3        NA      NA       1      NA       1      NA       3
##  6 E05000031         4        NA       4       2       1      NA       1       1
##  7 E05000032        NA        NA       2      NA       2       3       2       1
##  8 E05000033         1         2       5      NA      NA       1      NA       1
##  9 E05000034         1        NA       1      NA       1       2       1      NA
## 10 E05000035         3         4      NA      NA       4       2       3       3
## # … with 635 more rows, 4 more variables: `2020-09` <int>, `2020-10` <int>,
## #   `2020-11` <int>, `2020-12` <int>, and abbreviated variable names
## #   ¹​`2020-03`, ²​`2020-04`, ³​`2020-05`, ⁴​`2020-06`, ⁵​`2020-07`, ⁶​`2020-08`
…
