9 Rasters, Zonal Statistics and Interpolation | GEOG0030: Geocomputation
…
# call function
lon_points_voronoi <- st_thiessen_point(lonpollution_points)

# add attribute data
lonpollution_tv <- st_set_geometry(lonpollution_points, lon_points_voronoi)

# inspect
lonpollution_tv

## Simple feature collection with 96 features and 7 fields
## Geometry type: POLYGON
## Dimension:     XY
## Bounding box:  xmin: 460777.5 ymin: 117634.9 xmax: 599276.3 ymax: 244670.2
## Projected CRS: OSGB36 / British National Grid
## # A tibble: 96 × 8
##      no2 NAME  GSS_C…¹ DISTR…² LAGSS…³ HECTA…⁴ NONLD…⁵                  geometry
##  * <dbl> <chr> <chr>   <chr>   <chr>     <dbl>   <dbl>             <POLYGON [m]>
##  1  41.4 Tolw… E05000… Kingst… E09000…    259.       0 ((460777.5 117634.9, 460…
##  2  33.1 Coom… E05000… Kingst… E09000…    442.       0 ((518160.8 172616.8, 519…
##  3  57.1 Grove E05000… Kingst… E09000…    192.       0 ((505134.1 163271.3, 518…
##  4  28.7 Wadd… E05011… Croydon E09000…    392.       0 ((539500.1 117634.9, 529…
##  5  43.8 Norb… E05011… Croydon E09000…    134.       0 ((528255.9 169332.5, 528…
##  6  44.4 Fair… E05011… Croydon E09000…    147.       0 ((531058.8 165771.8, 531…
##  7  24.2 Brom… E05000… Bromley E09000…    372.       0 ((562432.6 117634.9, 543…
##  8  48.5 East… E05000… Ealing  E09000…    428.       0 ((519222.9 181677.7, 519…
##  9  26.5 Sout… E05000… Ealing  E09000…    143.       0 ((518394.3 176777, 51679…
## 10  41.8 Acto… E05000… Ealing  E09000…    177.       0 ((517366.5 178928.5, 519…
## # … with 86 more rows, and abbreviated variable names ¹​GSS_CODE, ²​DISTRICT,
## #   ³​LAGSSCODE, ⁴​HECTARES, ⁵​NONLD_AREA
…
